Data-As-Material - Day 6
…
theme_set(new = theme_custom())

Dataset - NHANES

data("NHANES")
NHANES

# A tibble: 10,000 × 76
      ID SurveyYr Gender   Age AgeDecade AgeMonths Race1 Race3 Education   
   <int> <fct>    <fct>  <int> <fct>         <int> <fct> <fct> <fct>       
 1 51624 2009_10  male      34 " 30-39"        409 White <NA>  High School 
 2 51624 2009_10  male      34 " 30-39"        409 White <NA>  High School 
 3 51624 2009_10  male      34 " 30-39"        409 White <NA>  High School 
 4 51625 2009_10  male       4 " 0-9"           49 Other <NA>  <NA>        
 5 51630 2009_10  female    49 " 40-49"        596 White <NA>  Some College
 6 51638 2009_10  male       9 " 0-9"          115 White <NA>  <NA>        
 7 51646 2009_10  male       8 " 0-9"          101 White <NA>  <NA>        
 8 51647 2009_10  female    45 " 40-49"        541 White <NA>  College Grad
 9 51647 2009_10  female    45 " 40-49"        541 White <NA>  College Grad
10 51647 2009_10  female    45 " 40-49"        541 White <NA>  College Grad
# ℹ 9,990 more rows
# ℹ 67 more variables: MaritalStatus <fct>, HHIncome <fct>, HHIncomeMid <int>,
#   Poverty <dbl>, HomeRooms <int>, HomeOwn <fct>, Work <fct>, Weight <dbl>,
#   Length <dbl>, HeadCirc <dbl>, Height <dbl>, BMI <dbl>,
#   BMICatUnder20yrs <fct>, BMI_WHO <fct>, Pulse <int>, BPSysAve <int>,
#   BPDiaAve <int>, BPSys1 <int>, BPDia1 <int>, BPSys2 <int>, BPDia2 <int>,
#   BPSys3 <int>, BPDia3 <int>, Testosterone <dbl>, DirectChol <dbl>, …
…
Additional Variables: More detailed information is available on reproductive health, mental health, and sexual behavior.

The dataset contains missing values (denoted as “NA”) in several columns, indicating that not all participants answered or were measured for every variable.

NHANES (sub)-dataset

NHANES_adult <-
  NHANES %>%
  distinct(ID, .keep_all = TRUE) %>%
  filter(Age >= 18) %>%
  select(Height) %>%
  drop_na(Height)
NHANES_adult

# A tibble: 4,790 × 1
   Height
    <dbl>
 1   165.
 2   168.
 3   167.
 4   170.
 5   182.
 6   169.
 7   148.
 8   178.
 9   181.
10   170.
# ℹ 4,780 more rows
…
pop_sd

[1] 10.15705

Now we calculate the mean and standard deviation of the height for adults in the NHANES dataset. The average (mean) height of the adult population is approximately 168.35 cm, with a standard deviation of 10.16 cm, which shows the typical variation around the mean. This suggests that while most adults have a height close to 168.35 cm, the heights can vary by about 10 cm above or below the mean.

Sampling

theme_set(new = theme_custom())
sample_50 <- mosaic::sample(NHANES_adult, size = 50) %>%
  select(Height)
sample_50

# A tibble: 50 × 1
   Height
    <dbl>
 1   170.
 2   174.
 3   173.
 4   171.
 5   170.
 6   187.
 7   159.
 8   182.
 9   180.
10   166.
# ℹ 40 more rows
…
sample_50_500 <- do(500) * {
## The do(500) function repeats the sampling process 500 times.
## For each iteration, a random sample of 50 heights is taken from the NHANES_adult dataset.
  sample(NHANES_adult, size = 50) %>%
    select(Height) %>% 
    summarise(
      sample_mean = mean(Height),
      sample_sd = sd(Height),
      sample_min = min(Height),
      sample_max = max(Height)
    )
}
sample_50_500

# A tibble: 500 × 6
   sample_mean sample_sd sample_min sample_max  .row .index
         <dbl>     <dbl>      <dbl>      <dbl> <int>  <dbl>
 1        169.      9.65       152.       191.     1      1
 2        171.     10.3        149        191.     1      2
 3        170.     11.0        144.       185.     1      3
 4        170.      9.66       149.       192.     1      4
 5        168.      8.89       152        189.     1      5
 6        167.      9.63       146.       187.     1      6
 7        167.      9.02       146        184.     1      7
 8        170.     12.4        143.       192.     1      8
 9        169.     10.3        148.       192.     1      9
10        167.      7.52       156.       186.     1     10
# ℹ 490 more rows
…
