Data-As-Material - Online Class
…
Output of the bbox_2 matrix

bbox_2

       min      max
x 77.58528 77.58929
y 12.93650 12.94369

The image shows the output of the bbox_2 matrix, which defines a bounding box for a specific area. The matrix contains the minimum and maximum x and y coordinates. The x-values range from 77.58528 to 77.58929, and the y-values range from 12.93650 to 12.94369.

Available Features

osmdata::available_features() %>% as_tibble()

# A tibble: 272 × 1
   value                  
   <chr>                  
 1 4wd_only               
 2 abandoned              
 3 abutters               
 4 access                 
 5 addr                   
 6 addr:city              
 7 addr:conscriptionnumber
 8 addr:country           
 9 addr:county            
10 addr:district          
# ℹ 262 more rows

The table shows a list of available features in the OpenStreetMap (OSM) dataset, converted into a tibble with 272 rows. The features displayed in the output include elements like “4wd_only,” “abandoned,” “abutters,” “access,” and various address-related tags. These represent different categories or attributes that can be used when extracting or analyzing geographical data from OSM, indicating the variety of metadata available for locations.

Available Tags - Highway

available_tags(feature = "highway")

# A tibble: 56 × 2
   Key     Value              
   <chr>   <chr>              
 1 highway bridleway          
 2 highway bus_guideway       
 3 highway bus_stop           
 4 highway busway             
 5 highway construction       
 6 highway corridor           
 7 highway crossing           
 8 highway cycleway           
 9 highway cyclist_waiting_aid
10 highway elevator           
# ℹ 46 more rows

The output represents a tibble of available tags for the “highway” feature, providing a list of 56 key-value pairs. Each key is labeled as “highway,” and the values describe specific highway-related features like “bridleway,” “bus_stop,” “busway,” “cycleway,” and “crossing.” These tags offer various classifications for highways and related infrastructure, helping to map different types of roads and pathways.

Available Tags - Amenity

available_tags("amenity")

# A tibble: 137 × 2
   Key     Value          
   <chr>   <chr>          
 1 amenity animal_boarding
 2 amenity animal_breeding
 3 amenity animal_shelter 
 4 amenity animal_training
 5 amenity arts_centre    
 6 amenity atm            
 7 amenity baby_hatch     
 8 amenity baking_oven    
 9 amenity bank           
10 amenity bar            
# ℹ 127 more rows

The table shows the available tags for the “amenity” feature, providing a list of 137 key-value pairs. Each key is labeled as “amenity,” and the values describe specific amenity-related features like “animal_boarding,” “animal_shelter,” “arts_centre,” “atm,” “bank,” and “bar.” These tags classify various public or private facilities and services in an area, aiding in mapping and analysis of amenities.

Available Tags - Natural

available_tags("natural")

# A tibble: 49 × 2
   Key     Value        
   <chr>   <chr>        
 1 natural arch         
 2 natural arete        
 3 natural bare_rock    
 4 natural bay          
 5 natural beach        
 6 natural blockfield   
 7 natural blowhole     
 8 natural cape         
 9 natural cave_entrance
10 natural cliff        
# ℹ 39 more rows
…
