Data-As-Material - Assignment 3 - Part 4
…
shows <- read_csv("../../data/tvshows.csv")

Rows: 90 Columns: 4
── Column specification ────────────────────────────────────────────────────────
Delimiter: ","
chr (3): Participant ID, Gender, Cartoon
dbl (1): Rating

ℹ Use `spec()` to retrieve the full column specification for this data.
ℹ Specify the column types or set `show_col_types = FALSE` to quiet this message.

shows

# A tibble: 90 × 4
   `Participant ID` Gender Cartoon      Rating
   <chr>            <chr>  <chr>         <dbl>
 1 P1               Male   Chhota Bheem    8.5
 2 P2               Male   Chhota Bheem    6  
 3 P3               Male   Chhota Bheem    8  
 4 P4               Male   Chhota Bheem    7  
 5 P5               Male   Chhota Bheem    8  
 6 P6               Male   Chhota Bheem   10  
 7 P7               Male   Chhota Bheem    5  
 8 P8               Male   Chhota Bheem    7.8
 9 P9               Male   Chhota Bheem    8.5
10 P10              Male   Chhota Bheem    5  
# ℹ 80 more rows

The dataset consists of ratings given by 90 participants, each providing a rating for one of three cartoons: Chhota Bheem, Doraemon, and Dragon Tales. The dataset includes four columns: “Participant ID,” “Gender,” “Cartoon,” and “Rating.” Each participant rated one cartoon on a scale from 1 to 10, with 10 being the highest. The dataset appears balanced in terms of gender distribution, with both male and female participants represented.

TV Shows modified

shows_modified <- shows %>%
  mutate(
    Cartoon = as.factor(Cartoon),
    Gender = as.factor(Gender)
  )
shows_modified

# A tibble: 90 × 4
   `Participant ID` Gender Cartoon      Rating
   <chr>            <fct>  <fct>         <dbl>
 1 P1               Male   Chhota Bheem    8.5
 2 P2               Male   Chhota Bheem    6  
 3 P3               Male   Chhota Bheem    8  
 4 P4               Male   Chhota Bheem    7  
 5 P5               Male   Chhota Bheem    8  
 6 P6               Male   Chhota Bheem   10  
 7 P7               Male   Chhota Bheem    5  
 8 P8               Male   Chhota Bheem    7.8
 9 P9               Male   Chhota Bheem    8.5
10 P10              Male   Chhota Bheem    5  
# ℹ 80 more rows
…
