Data-As-Material - Assignment 3 - Part 1
…
spending_23rd <- read_csv("../../data/Pocketmoney.csv")

Rows: 82 Columns: 4
── Column specification ────────────────────────────────────────────────────────
Delimiter: ","
chr (2): Name, Gender
dbl (2): Sr no, Money Spent

ℹ Use `spec()` to retrieve the full column specification for this data.
ℹ Specify the column types or set `show_col_types = FALSE` to quiet this message.

spending_23rd

# A tibble: 82 × 4
   `Sr no` Name     Gender `Money Spent`
     <dbl> <chr>    <chr>          <dbl>
 1       1 Aagam    Male             150
 2       2 Aakash   Male             240
 3       3 Aarushi  Female           382
 4       4 Abheeta  Female            60
 5       5 Adithya  Male              68
 6       6 Aditya   Male             300
 7       7 Akanksha Female           270
 8       8 Amruta   Female           190
 9       9 Anaaya   Female           300
10      10 Anish    Male               0
# ℹ 72 more rows
…
