Data-As-Material - Assignment 2 - Part 1
…
Rows: 3310 Columns: 1
── Column specification ────────────────────────────────────────────────────────
Delimiter: ","
chr (1): release_date;movie;production_budget;domestic_gross;worldwide_gross...

ℹ Use `spec()` to retrieve the full column specification for this data.
ℹ Specify the column types or set `show_col_types = FALSE` to quiet this message.

movie_profit

# A tibble: 3,310 × 1
   release_date;movie;production_budget;domestic_gross;worldwide_gross;distrib…¹
   <chr>                                                                        
 1 2005-07-22;November;250000;191862;191862;Other;R;Drama;7,67448000000000e-01;…
 2 1998-08-28;I Married a Strange Person;250000;203134;203134;Other;NA;Comedy;8…
 3 1997-03-28;Love and Other Catastrophes;250000;212285;743216;Other;R;Comedy;2…
 4 2000-07-14;Chuck&Buck;250000;1055671;1157672;Other;R;Drama;4,63068800000000e…
 5 2011-10-28;Like Crazy;250000;3395391;3728400;Paramount Pictures;PG-13;Drama;…
 6 2003-04-11;Better Luck Tomorrow;250000;3802390;3809226;Paramount Pictures;R;…
 7 2017-04-28;Sleight;250000;3930990;3934450;Other;R;Action;1,57378000000000e+0…
 8 2002-06-28;Lovely and Amazing;250000;4210379;4613482;Other;R;Drama;1,8453928…
 9 2012-08-17;Compliance;270000;319285;830700;Other;R;Drama;3,07666666666667e+0…
10 2005-05-06;Fighting Tommy Riley;300000;10514;10514;Other;R;Drama;3,504666666…
# ℹ 3,300 more rows
# ℹ abbreviated name:
#   ¹​`release_date;movie;production_budget;domestic_gross;worldwide_gross;distributor;mpaa_rating;genre;profit_ratio;decade`
…
Rows: 3310 Columns: 10
── Column specification ────────────────────────────────────────────────────────
Delimiter: ";"
chr  (4): movie, distributor, mpaa_rating, genre
dbl  (4): production_budget, domestic_gross, worldwide_gross, decade
num  (1): profit_ratio
date (1): release_date

ℹ Use `spec()` to retrieve the full column specification for this data.
ℹ Specify the column types or set `show_col_types = FALSE` to quiet this message.

movie_profit

# A tibble: 3,310 × 10
   release_date movie           production_budget domestic_gross worldwide_gross
   <date>       <chr>                       <dbl>          <dbl>           <dbl>
 1 2005-07-22   November                   250000         191862          191862
 2 1998-08-28   I Married a St…            250000         203134          203134
 3 1997-03-28   Love and Other…            250000         212285          743216
 4 2000-07-14   Chuck&Buck                 250000        1055671         1157672
 5 2011-10-28   Like Crazy                 250000        3395391         3728400
 6 2003-04-11   Better Luck To…            250000        3802390         3809226
 7 2017-04-28   Sleight                    250000        3930990         3934450
 8 2002-06-28   Lovely and Ama…            250000        4210379         4613482
 9 2012-08-17   Compliance                 270000         319285          830700
10 2005-05-06   Fighting Tommy…            300000          10514           10514
# ℹ 3,300 more rows
# ℹ 5 more variables: distributor <chr>, mpaa_rating <chr>, genre <chr>,
#   profit_ratio <dbl>, decade <dbl>
…
Insights gained from this study could inform studios on what variables drive financial success and help in decision-making for future film projects.

Calculating median profit ratio

# Aggregating data by distributor and genre to calculate median profit ratio
movie_profit_summary <- movie_profit %>%
  group_by(distributor, genre) %>%
  summarize(median_profit_ratio = median(profit_ratio, na.rm = TRUE) , count = n())

`summarise()` has grouped output by 'distributor'. You can override using the
`.groups` argument.

movie_profit_summary

# A tibble: 35 × 4
# Groups:   distributor [7]
   distributor      genre     median_profit_ratio count
   <chr>            <chr>                   <dbl> <int>
 1 20th Century Fox Action                2.68e14    67
 2 20th Century Fox Adventure             2.76e14    75
 3 20th Century Fox Comedy                2.70e14    69
 4 20th Century Fox Drama                 1.96e14    55
 5 20th Century Fox Horror                2.50e14    13
 6 Other            Action                1.76e14   227
 7 Other            Adventure             2.07e14   191
 8 Other            Comedy                1.53e14   375
 9 Other            Drama                 1.22e14   784
10 Other            Horror                2.47e14   160
# ℹ 25 more rows
…
