Data-As-Material - Day 7
…
The dataset from the Diving2017 championship includes results from 12 divers across 8 countries, with no missing data. The semifinal scores ranged from 313.7 to 382.8, with a median of 325.63 and a standard deviation of 22.95, indicating a relatively consistent performance among divers. The final scores showed more variation, ranging from 283.35 to 397.5, with a higher median of 358.93 and a larger standard deviation of 40.02, suggesting greater performance differences in the final round. Overall, most divers improved their scores in the final compared to the semifinals.

Converting the Data into long form

theme_set(new = theme_custom())

Diving2017_long <- Diving2017 %>%
  pivot_longer(
    cols = c(Final, Semifinal),
    names_to = "race",
    values_to = "scores"
  )
Diving2017_long

# A tibble: 24 × 4
   Name               Country     race      scores
   <fct>              <fct>       <chr>      <dbl>
 1 "CHEONG Jun Hoong" Malaysia    Final       398.
 2 "CHEONG Jun Hoong" Malaysia    Semifinal   326.
 3 " SI Yajie"        China       Final       396 
 4 " SI Yajie"        China       Semifinal   383.
 5 "REN Qian"         China       Final       392.
 6 "REN Qian"         China       Semifinal   368.
 7 "KIM Mi Rae"       North Korea Final       386.
 8 "KIM Mi Rae"       North Korea Semifinal   346 
 9 "WU Melissa"       Australia   Final       370.
10 "WU Melissa"       Australia   Semifinal   319.
# ℹ 14 more rows
…
Converting the Data into long form

theme_set(new = theme_custom())

Groceries_long <- Groceries %>%
  pivot_longer(
    cols = c(Walmart, Target),
    names_to = "store",
    values_to = "prices"
  ) %>%
  mutate(store = as_factor(store))
Groceries_long

# A tibble: 60 × 4
   Product                          Size      store   prices
   <chr>                            <fct>     <fct>    <dbl>
 1 Kellogg NutriGrain Bars          "8 bars"  Walmart   2.78
 2 Kellogg NutriGrain Bars          "8 bars"  Target    2.5 
 3 Quaker Oats Life Cereal Original "18oz"    Walmart   6.01
 4 Quaker Oats Life Cereal Original "18oz"    Target    3.19
 5 General Mills Lucky Charms       "11.50z"  Walmart   2.98
 6 General Mills Lucky Charms       "11.50z"  Target    3.19
 7 Quaker Oats Old Fashioned        "18oz"    Walmart   2.68
 8 Quaker Oats Old Fashioned        "18oz"    Target    2.82
 9 Nabisco Oreo Cookies             "14.3oz " Walmart   2.98
10 Nabisco Oreo Cookies             "14.3oz " Target    2.99
# ℹ 50 more rows
…
Dataset - Frogs

frogs_orig <- read_csv("../../data/frogs.csv")

Rows: 60 Columns: 4
── Column specification ────────────────────────────────────────────────────────
Delimiter: ","
dbl (4): Frogspawn sample id, Temperature13, Temperature18, Temperature25

ℹ Use `spec()` to retrieve the full column specification for this data.
ℹ Specify the column types or set `show_col_types = FALSE` to quiet this message.

frogs_orig

# A tibble: 60 × 4
   `Frogspawn sample id` Temperature13 Temperature18 Temperature25
                   <dbl>         <dbl>         <dbl>         <dbl>
 1                     1            24            NA            NA
 2                     2            NA            21            NA
 3                     3            NA            NA            18
 4                     4            26            NA            NA
 5                     5            NA            22            NA
 6                     6            NA            NA            14
 7                     7            27            NA            NA
 8                     8            NA            22            NA
 9                     9            NA            NA            15
10                    10            27            NA            NA
# ℹ 50 more rows
…
  separate_wider_regex(
    cols = Temp,
    patterns = c("Temperature", TempFac = "\\d+"),
    cols_remove = TRUE
  ) %>%
## Convert Temp into TempFac, a 3-level factor
  mutate(TempFac = factor(
    x = TempFac,
    levels = c(13, 18, 25),
    labels = c("13", "18", "25")
  )) %>%
  rename("Id" = `Frogspawn sample id`) -> frogs_long
frogs_long

# A tibble: 60 × 3
      Id TempFac  Time
   <dbl> <fct>   <dbl>
 1     1 13         24
 2     2 18         21
 3     3 25         18
 4     4 13         26
 5     5 18         22
 6     6 25         14
 7     7 13         27
 8     8 18         22
 9     9 25         15
10    10 13         27
# ℹ 50 more rows
…
Permutation Test to generate a null distribution of F-statistics

null_dist_infer <- frogs_long %>%
  specify(Time ~ TempFac) %>%
  hypothesise(null = "independence") %>%
  generate(reps = 4999, type = "permute") %>%
  calculate(stat = "F")

null_dist_infer

Response: Time (numeric)
Explanatory: TempFac (factor)
Null Hypothesis: independence
# A tibble: 4,999 × 2
   replicate   stat
       <int>  <dbl>
 1         1 1.08  
 2         2 3.30  
 3         3 5.51  
 4         4 3.85  
 5         5 0.189 
 6         6 0.412 
 7         7 2.75  
 8         8 1.54  
 9         9 0.0974
10        10 2.92  
# ℹ 4,989 more rows
…
