Data-As-Material - Assignment 3 - Part 2
…
tip <- read_csv("../../data/tip.csv")

Rows: 60 Columns: 4
── Column specification ────────────────────────────────────────────────────────
Delimiter: ","
chr (3): Name, Gender, Preference
dbl (1): Tip

ℹ Use `spec()` to retrieve the full column specification for this data.
ℹ Specify the column types or set `show_col_types = FALSE` to quiet this message.

tip

# A tibble: 60 × 4
   Name     Gender Preference   Tip
   <chr>    <chr>  <chr>      <dbl>
 1 Aanya    Female Veg            0
 2 Adit     Male   Veg            0
 3 Aditi    Female Veg           20
 4 Akash    Male   Non-veg        0
 5 Akshita  Female Non-veg        0
 6 Anandita Female Non-veg        0
 7 Ananya   Female Non-veg       20
 8 Anaya    Female Veg           35
 9 Anhuya   Female Veg           40
10 Ankit    Male   Non-veg        0
# ℹ 50 more rows
…
