Data-As-Material - Day 3
…
taxi <- read_csv("https://vincentarelbundock.github.io/Rdatasets/csv/modeldata/taxi.csv")

Rows: 10000 Columns: 8
── Column specification ────────────────────────────────────────────────────────
Delimiter: ","
chr (5): tip, company, local, dow, month
dbl (3): rownames, distance, hour

ℹ Use `spec()` to retrieve the full column specification for this data.
ℹ Specify the column types or set `show_col_types = FALSE` to quiet this message.

taxi

# A tibble: 10,000 × 8
   rownames tip   distance company                      local dow   month  hour
      <dbl> <chr>    <dbl> <chr>                        <chr> <chr> <chr> <dbl>
 1        1 yes      17.2  Chicago Independents         no    Thu   Feb      16
 2        2 yes       0.88 City Service                 yes   Thu   Mar       8
 3        3 yes      18.1  other                        no    Mon   Feb      18
 4        4 yes      20.7  Chicago Independents         no    Mon   Apr       8
 5        5 yes      12.2  Chicago Independents         no    Sun   Mar      21
 6        6 yes       0.94 Sun Taxi                     yes   Sat   Apr      23
 7        7 yes      17.5  Flash Cab                    no    Fri   Mar      12
 8        8 yes      17.7  other                        no    Sun   Jan       6
 9        9 yes       1.85 Taxicab Insurance Agency Llc no    Fri   Apr      12
10       10 yes       1.47 City Service                 no    Tue   Mar      14
# ℹ 9,990 more rows
…
Look at the apartments dataset

apartments <- read_csv("../../data/apartments.csv")

Rows: 1460 Columns: 1
── Column specification ────────────────────────────────────────────────────────
Delimiter: ","
chr (1): GrLivArea;SalePrice

ℹ Use `spec()` to retrieve the full column specification for this data.
ℹ Specify the column types or set `show_col_types = FALSE` to quiet this message.

apartments

# A tibble: 1,460 × 1
   `GrLivArea;SalePrice`
   <chr>                
 1 1710;208500          
 2 1262;181500          
 3 1786;223500          
 4 1717;140000          
 5 2198;250000          
 6 1362;143000          
 7 1694;307000          
 8 2090;200000          
 9 1774;129900          
10 1077;118000          
# ℹ 1,450 more rows
…
Rows: 1460 Columns: 2
── Column specification ────────────────────────────────────────────────────────
Delimiter: ";"
dbl (2): GrLivArea, SalePrice

ℹ Use `spec()` to retrieve the full column specification for this data.
ℹ Specify the column types or set `show_col_types = FALSE` to quiet this message.

The dataset is read using a semicolon (;) delimiter.

Dataset - apartments

apartments

# A tibble: 1,460 × 2
   GrLivArea SalePrice
       <dbl>     <dbl>
 1      1710    208500
 2      1262    181500
 3      1786    223500
 4      1717    140000
 5      2198    250000
 6      1362    143000
 7      1694    307000
 8      2090    200000
 9      1774    129900
10      1077    118000
# ℹ 1,450 more rows
…
fert <- read_csv("../../data/Fertility.csv")

Rows: 254654 Columns: 9
── Column specification ────────────────────────────────────────────────────────
Delimiter: ","
chr (6): morekids, gender1, gender2, afam, hispanic, other
dbl (3): rownames, age, work

ℹ Use `spec()` to retrieve the full column specification for this data.
ℹ Specify the column types or set `show_col_types = FALSE` to quiet this message.

fert

# A tibble: 254,654 × 9
   rownames morekids gender1 gender2   age afam  hispanic other  work
      <dbl> <chr>    <chr>   <chr>   <dbl> <chr> <chr>    <chr> <dbl>
 1        1 no       male    female     27 no    no       no        0
 2        2 no       female  male       30 no    no       no       30
 3        3 no       male    female     27 no    no       no        0
 4        4 no       male    female     35 yes   no       no        0
 5        5 no       female  female     30 no    no       no       22
 6        6 no       male    female     26 no    no       no       40
 7        7 no       female  male       29 no    no       no        0
 8        8 no       male    male       33 no    no       no       52
 9        9 no       female  male       29 no    no       no        0
10       10 no       male    female     27 no    no       no        0
# ℹ 254,644 more rows
…
