Data-As-Material - Assignment 2 - Part 2
…
Rows: 32 Columns: 1
── Column specification ────────────────────────────────────────────────────────
Delimiter: ","
chr (1): year;occupation;major_category;minor_category;total_workers;workers...

ℹ Use `spec()` to retrieve the full column specification for this data.
ℹ Specify the column types or set `show_col_types = FALSE` to quiet this message.

job_gender

# A tibble: 32 × 1
   year;occupation;major_category;minor_category;total_workers;workers_male;wo…¹
   <chr>                                                                        
 1 2016;Dietitians and nutritionists;Healthcare Practitioners and Technical;Hea…
 2 2016;Medical records and health information technicians;Healthcare Practitio…
 3 2016;Pharmacists;Healthcare Practitioners and Technical;Healthcare Practitio…
 4 2016;Licensed practical and licensed vocational nurses;Healthcare Practition…
 5 2016;Miscellaneous therapists, including exercise physiologists;Healthcare P…
 6 2016;Clinical laboratory technologists and technicians;Healthcare Practition…
 7 2016;Registered nurses;Healthcare Practitioners and Technical;Healthcare Pra…
 8 2016;Nurse practitioners;Healthcare Practitioners and Technical;Healthcare P…
 9 2016;Physician assistants;Healthcare Practitioners and Technical;Healthcare …
10 2016;Health practitioner support technologists and technicians;Healthcare Pr…
# ℹ 22 more rows
# ℹ abbreviated name:
#   ¹​`year;occupation;major_category;minor_category;total_workers;workers_male;workers_female;percent_female;total_earnings;total_earnings_male;total_earnings_female;wage_percent_of_male`
…
job_gender <- read_delim(file="../../data/job_gender_data.csv",delim =";")

Rows: 32 Columns: 12
── Column specification ────────────────────────────────────────────────────────
Delimiter: ";"
chr (3): occupation, major_category, minor_category
dbl (7): year, total_workers, workers_male, workers_female, total_earnings, ...
num (2): percent_female, wage_percent_of_male

ℹ Use `spec()` to retrieve the full column specification for this data.
ℹ Specify the column types or set `show_col_types = FALSE` to quiet this message.

job_gender

# A tibble: 32 × 12
    year occupation     major_category minor_category total_workers workers_male
   <dbl> <chr>          <chr>          <chr>                  <dbl>        <dbl>
 1  2016 Dietitians an… Healthcare Pr… Healthcare Pr…         70729         8095
 2  2016 Medical recor… Healthcare Pr… Healthcare Pr…        148302        14938
 3  2016 Pharmacists    Healthcare Pr… Healthcare Pr…        214665        97539
 4  2016 Licensed prac… Healthcare Pr… Healthcare Pr…        602316        77484
 5  2016 Miscellaneous… Healthcare Pr… Healthcare Pr…        107797        25250
 6  2016 Clinical labo… Healthcare Pr… Healthcare Pr…        245278        68887
 7  2016 Registered nu… Healthcare Pr… Healthcare Pr…       2317493       281048
 8  2016 Nurse practit… Healthcare Pr… Healthcare Pr…        116166        14128
 9  2016 Physician ass… Healthcare Pr… Healthcare Pr…         76018        27869
10  2016 Health practi… Healthcare Pr… Healthcare Pr…        440607        98824
# ℹ 22 more rows
# ℹ 6 more variables: workers_female <dbl>, percent_female <dbl>,
#   total_earnings <dbl>, total_earnings_male <dbl>,
#   total_earnings_female <dbl>, wage_percent_of_male <dbl>
…
Calculation of Variables:

Wage Percent of Male was calculated by dividing the average salary of female workers by the average salary of male workers for each occupation.

Percent Female was calculated as the number of female workers divided by the total number of workers in each occupation.

The experiment could aim to provide a comprehensive understanding of gender wage gaps across industries, potentially identifying which occupations exhibit the largest disparities and what factors (such as gender representation and occupation type) might contribute to wage inequality.

Calculating the median salary

job_gender <- job_gender %>%
  mutate(median_salary = (total_earnings_male + total_earnings_female) / 2)
job_gender

# A tibble: 32 × 13
    year occupation     major_category minor_category total_workers workers_male
   <dbl> <chr>          <chr>          <chr>                  <dbl>        <dbl>
 1  2016 Dietitians an… Healthcare Pr… Healthcare Pr…         70729         8095
 2  2016 Medical recor… Healthcare Pr… Healthcare Pr…        148302        14938
 3  2016 Pharmacists    Healthcare Pr… Healthcare Pr…        214665        97539
 4  2016 Licensed prac… Healthcare Pr… Healthcare Pr…        602316        77484
 5  2016 Miscellaneous… Healthcare Pr… Healthcare Pr…        107797        25250
 6  2016 Clinical labo… Healthcare Pr… Healthcare Pr…        245278        68887
 7  2016 Registered nu… Healthcare Pr… Healthcare Pr…       2317493       281048
 8  2016 Nurse practit… Healthcare Pr… Healthcare Pr…        116166        14128
 9  2016 Physician ass… Healthcare Pr… Healthcare Pr…         76018        27869
10  2016 Health practi… Healthcare Pr… Healthcare Pr…        440607        98824
# ℹ 22 more rows
# ℹ 7 more variables: workers_female <dbl>, percent_female <dbl>,
#   total_earnings <dbl>, total_earnings_male <dbl>,
#   total_earnings_female <dbl>, wage_percent_of_male <dbl>,
#   median_salary <dbl>
…
