Data As Material - Day 2
…
    group_rows

library(skimr)

Attaching package: 'skimr'

The following object is masked from 'package:mosaic':

    n_missing

Look at the mpg dataset

mpg

# A tibble: 234 × 11
   manufacturer model      displ  year   cyl trans drv     cty   hwy fl    class
   <chr>        <chr>      <dbl> <int> <int> <chr> <chr> <int> <int> <chr> <chr>
 1 audi         a4           1.8  1999     4 auto… f        18    29 p     comp…
 2 audi         a4           1.8  1999     4 manu… f        21    29 p     comp…
 3 audi         a4           2    2008     4 manu… f        20    31 p     comp…
 4 audi         a4           2    2008     4 auto… f        21    30 p     comp…
 5 audi         a4           2.8  1999     6 auto… f        16    26 p     comp…
 6 audi         a4           2.8  1999     6 manu… f        18    26 p     comp…
 7 audi         a4           3.1  2008     6 auto… f        18    27 p     comp…
 8 audi         a4 quattro   1.8  1999     4 manu… 4        18    26 p     comp…
 9 audi         a4 quattro   1.8  1999     4 auto… 4        16    25 p     comp…
10 audi         a4 quattro   2    2008     4 manu… 4        20    28 p     comp…
# ℹ 224 more rows

The table provides information on various car models from 1999 and 2008, highlighting key specifications. The data allows for a detailed comparison of the cars’ performance and specifications across different years and models.

First 10 rows of the mpg dataset

mpg 

# A tibble: 234 × 11
   manufacturer model      displ  year   cyl trans drv     cty   hwy fl    class
   <chr>        <chr>      <dbl> <int> <int> <chr> <chr> <int> <int> <chr> <chr>
 1 audi         a4           1.8  1999     4 auto… f        18    29 p     comp…
 2 audi         a4           1.8  1999     4 manu… f        21    29 p     comp…
 3 audi         a4           2    2008     4 manu… f        20    31 p     comp…
 4 audi         a4           2    2008     4 auto… f        21    30 p     comp…
 5 audi         a4           2.8  1999     6 auto… f        16    26 p     comp…
 6 audi         a4           2.8  1999     6 manu… f        18    26 p     comp…
 7 audi         a4           3.1  2008     6 auto… f        18    27 p     comp…
 8 audi         a4 quattro   1.8  1999     4 manu… 4        18    26 p     comp…
 9 audi         a4 quattro   1.8  1999     4 auto… 4        16    25 p     comp…
10 audi         a4 quattro   2    2008     4 manu… 4        20    28 p     comp…
# ℹ 224 more rows
…
Rows: 599 Columns: 1
── Column specification ────────────────────────────────────────────────────────
Delimiter: ","
chr (1): Age;Gender;Grade;AMAS;RCMAS;Arith

ℹ Use `spec()` to retrieve the full column specification for this data.
ℹ Specify the column types or set `show_col_types = FALSE` to quiet this message.

math_anxiety

# A tibble: 599 × 1
   `Age;Gender;Grade;AMAS;RCMAS;Arith`
   <chr>                              
 1 137,8;Boy;Secondary;9;20;6         
 2 140,7;Boy;Secondary;18;8;6         
 3 137,9;Girl;Secondary;23;26;5       
 4 142,8;Girl;Secondary;19;18;7       
 5 135,6;Boy;Secondary;23;20;1        
 6 135,0;Girl;Secondary;27;33;1       
 7 133,6;Boy;Secondary;22;23;4        
 8 139,3;Boy;Secondary;17;11;7        
 9 131,7;Girl;Secondary;28;32;2       
10 134,8;Boy;Secondary;20;30;6        
# ℹ 589 more rows
…
Gender: The gender of the participant, categories include Boy and Girl.

Grade: The educational grade level of the participant, such as Secondary.

Data Munging

math_anxiety_modified <- math_anxiety %>%
  dplyr::mutate(
    Age = Age/120,
    Gender = as_factor(Gender)
  )
math_anxiety_modified

# A tibble: 599 × 6
     Age Gender Grade      AMAS RCMAS Arith
   <dbl> <fct>  <chr>     <dbl> <dbl> <dbl>
 1  11.5 Boy    Secondary     9    20     6
 2  11.7 Boy    Secondary    18     8     6
 3  11.5 Girl   Secondary    23    26     5
 4  11.9 Girl   Secondary    19    18     7
 5  11.3 Boy    Secondary    23    20     1
 6  11.2 Girl   Secondary    27    33     1
 7  11.1 Boy    Secondary    22    23     4
 8  11.6 Boy    Secondary    17    11     7
 9  11.0 Girl   Secondary    28    32     2
10  11.2 Boy    Secondary    20    30     6
# ℹ 589 more rows
…
The summary of average AMAS scores grouped by gender reveals that girls have a slightly higher average AMAS score (22.93) compared to boys (21.17). The total count of boys in the dataset is 323, while the total count of girls is 276. This suggests that while boys and girls show close levels of math anxiety, girls exhibit a marginally higher average score in the dataset.

Summary of Average AMAS Scores and Count by Gender and Age Group

math_anxiety_modified %>%
  group_by(Gender,Age) %>%
  summarize(average_AMAS = mean(AMAS), count = n())

`summarise()` has grouped output by 'Gender'. You can override using the
`.groups` argument.

# A tibble: 474 × 4
# Groups:   Gender [2]
   Gender   Age average_AMAS count
   <fct>  <dbl>        <dbl> <int>
 1 Boy     7.76         16       1
 2 Boy     7.82         24       1
 3 Boy     7.83         13       1
 4 Boy     7.9          14       1
 5 Boy     7.91         11       1
 6 Boy     7.94         29       1
 7 Boy     7.96         16.5     2
 8 Boy     7.98          9       1
 9 Boy     7.98         29       1
10 Boy     7.99          9       1
# ℹ 464 more rows
…
The table shows a summary of average RCMAS (Revised Children’s Manifest Anxiety Scale) scores grouped by gender. The average RCMAS score for boys is 18.12, based on 323 participants, while the average RCMAS score for girls is 20.55, based on 276 participants. This suggests that, on average, girls exhibit slightly higher anxiety levels as measured by the RCMAS scale compared to boys.

Summary of Average RCMAS Scores and Count by Gender and Age Group

math_anxiety_modified %>%
  group_by(Gender,Age) %>%
  summarize(average_RCMAS = mean(RCMAS), count = n())

`summarise()` has grouped output by 'Gender'. You can override using the
`.groups` argument.

# A tibble: 474 × 4
# Groups:   Gender [2]
   Gender   Age average_RCMAS count
   <fct>  <dbl>         <dbl> <int>
 1 Boy     7.76            20     1
 2 Boy     7.82            20     1
 3 Boy     7.83            15     1
 4 Boy     7.9             17     1
 5 Boy     7.91            15     1
 6 Boy     7.94            24     1
 7 Boy     7.96            27     2
 8 Boy     7.98            23     1
 9 Boy     7.98            29     1
10 Boy     7.99            34     1
# ℹ 464 more rows
…
Rows: 16369 Columns: 1
── Column specification ────────────────────────────────────────────────────────
Delimiter: ","
chr (1): title;author;date;publisher;identifier;series;subseries;nchap;nword...

ℹ Use `spec()` to retrieve the full column specification for this data.
ℹ Specify the column types or set `show_col_types = FALSE` to quiet this message.

startrek_data

# A tibble: 16,369 × 1
   title;author;date;publisher;identifier;series;subseries;nchap;nword;nchar;d…¹
   <chr>                                                                        
 1 "Star Trek: Star Trek Movie Tie-In;Alan Dean Foster;2009-05-12;Simon and Sch…
 2 "Starfleet Academy: The Delta Anomaly;Rick Barba;2010-11-02;Simon Spotlight;…
 3 "Starfleet Academy: The Edge;Rudy Josephs;2010-12-28;Simon Spotlight;9781442…
 4 "Starfleet Academy: The Gemini Agent;Rick Barba;2011-06-28;Simon Spotlight;9…
 5 "Starfleet Academy: The Assassination Game;Alan Gratz;2012-06-26;Simon Spotl…
 6 "Star Trek: Into Darkness;Alan Dean Foster;2013-05-21;Gallery Books;97814767…
 7 "Captain's Table 1: War Dragons;James T. Hirk;1998-06-01;Pocket Books;978143…
 8 "Captain's Table 5: Once Burned;Mackenzie;1998-10-01;Pocket Books;9780743455…
 9 "Captain's Table 6: Where Sea Meets Sky;Christopher Pike;1998-10-01;Pocket B…
10 "For my brother, Ray, who introduced me to Star Trek and helped tune it in b…
# ℹ 16,359 more rows
# ℹ abbreviated name:
#   ¹​`title;author;date;publisher;identifier;series;subseries;nchap;nword;nchar;dedication`
…
ℹ Use `spec()` to retrieve the full column specification for this data.
ℹ Specify the column types or set `show_col_types = FALSE` to quiet this message.

The dataset is read using a semicolon (;) delimiter.

Dataset - startrek_data

startrek_data

# A tibble: 783 × 11
   title    author date       publisher identifier series subseries nchap  nword
   <chr>    <chr>  <date>     <chr>     <chr>      <chr>  <chr>     <dbl>  <dbl>
 1 Star Tr… Alan … 2009-05-12 Simon an… 1439163391 AV     <NA>         18  77035
 2 Starfle… Rick … 2010-11-02 Simon Sp… 978144241… AV     Starflee…    14  40129
 3 Starfle… Rudy … 2010-12-28 Simon Sp… 978144241… AV     Starflee…    31  52547
 4 Starfle… Rick … 2011-06-28 Simon Sp… 978144241… AV     Starflee…    13  39495
 5 Starfle… Alan … 2012-06-26 Simon Sp… 978144242… AV     Starflee…    30  62030
 6 Star Tr… Alan … 2013-05-21 Gallery … 978147671… AV     <NA>         17  77438
 7 Captain… James… 1998-06-01 Pocket B… 978143910… CT     <NA>         21  95110
 8 Captain… Macke… 1998-10-01 Pocket B… 978074345… CT     <NA>         26  76392
 9 Captain… Chris… 1998-10-01 Pocket B… 978143910… CT     <NA>         34  78678
10 The Cap… John … 2000-03-01 Pocket B… 978074340… CT     <NA>        176 436682
# ℹ 773 more rows
# ℹ 2 more variables: nchar <dbl>, dedication <chr>
…
publisher: The publishing company responsible for releasing the book.

series: The main series of the Star Trek universe to which the book belongs (e.g., The Original Series, The Next Generation).

subseries: A subcategory or subseries within the main Star Trek series (e.g., Deep Space Nine).

dedication: A text string containing the book’s dedication, if applicable

Summary of Average Number of Characters and Book Count by Author

startrek_data %>% 
  group_by(author) %>%
  summarize(average_characters = mean(nchar, na.rm = TRUE), count = n())

# A tibble: 277 × 3
   author                                               average_characters count
   <chr>                                                             <dbl> <int>
 1 A. C. Crispin                                                   571858      1
 2 A.C. Crispin                                                    480611.     3
 3 Aaron Rosenberg                                                  87922.     3
 4 Adam “mojo” Lebowitz; Robert Bonchune; Jonathan Lan…            144868      1
 5 Alan Dean Foster                                                498784.     2
 6 Alan Gratz                                                      349595      1
 7 Allyn Gibson                                                    144935      1
 8 Andrew J. Robinson                                              641696      1
 9 Andy Mangels                                                    576557      1
10 Andy Mangels and Michael A. Martin                              571987      1
# ℹ 267 more rows

This gives insight into the volume of work and average text length produced by different authors in the dataset.

Summary of Average Number of Words and Book Count by Publisher

startrek_data %>% 
  group_by(publisher) %>%
summarize(average_words = mean(nword, na.rm = TRUE), count = n())

# A tibble: 22 × 3
   publisher           average_words count
   <chr>                       <dbl> <int>
 1 Abrams Publications       132041      1
 2 Aladdin                    23801.    28
 3 Aladdin Paperbacks         69076      1
 4 Amereon Ltd                40804.     2
 5 Bantam Books               50225.    20
 6 Demco Media                23310.     2
 7 Dk Publishing             119459      1
 8 Elysium                    98779      1
 9 Gallery Books              93418.    15
10 Harlequin                  63453      1
# ℹ 12 more rows

The summary of the Star Trek book dataset, grouped by publisher, provides insights into the average number of words and the total book count for each publisher. For example, Abrams Publications has one book with an average of 132,041 words, while Aladdin has 28 books with an average of 23,800 words.

Summary of Average Word Count and Total Books by Series

startrek_data %>%
  group_by(series) %>%
summarize(average_words = mean(nword, na.rm = TRUE), count = n())

# A tibble: 28 × 3
   series average_words count
   <chr>          <dbl> <int>
 1 AV            58112.     6
 2 CT           157688.     5
 3 DS9           91641.    83
 4 DSC           89367      1
 5 DTI           59215.     5
 6 ENT           82724.    19
 7 KE            74668.     4
 8 MIR          115916.     5
 9 MISC          89974.    13
10 MYR          145127      3
# ℹ 18 more rows

The grouping is done by series, and it shows a range of series with their calculated average word counts and the total number of books within each series. For example, the “TOS” series has 210 books with an average word count of 76,522.67, while the “CT” series has only 5 books but a much higher average word count of 157,687.80. There is also a wide variation in word count across different series, such as “YA-DS9” having only 23,298 words on average compared to more substantial works like “MYR” with 145,127 words. This summary helps identify how the different series compare in terms of length and volume, highlighting the diversity of content.

Summary of Total Books and Average Word Count by Series and Author

startrek_data %>%
  group_by(series, author) %>%
summarize(total_books = n(), average_words = mean(nword, na.rm = TRUE))

`summarise()` has grouped output by 'series'. You can override using the
`.groups` argument.

# A tibble: 419 × 4
# Groups:   series [28]
   series author                                total_books average_words
   <chr>  <chr>                                       <int>         <dbl>
 1 AV     Alan Dean Foster                                2        77236.
 2 AV     Alan Gratz                                      1        62030 
 3 AV     Rick Barba                                      2        39812 
 4 AV     Rudy Josephs                                    1        52547 
 5 CT     Christopher Pike                                1        78678 
 6 CT     James T. Hirk                                   1        95110 
 7 CT     John J. Ordover and Dean Wesley Smith           1       436682 
 8 CT     Keith R.A. Decandido                            1       101577 
 9 CT     Mackenzie                                       1        76392 
10 DS9    Andrew J. Robinson                              1       113304 
# ℹ 409 more rows

This allows for an analysis of how different authors contribute to various Star Trek series in terms of the number of books they have written and the average length (in words) of their works.

Summary of Total Books and Average Character Count by Year and Author

startrek_data %>%
  group_by(year(date), author) %>%
summarize(total_books = n(), average_characters = mean(nchar, na.rm = TRUE))

`summarise()` has grouped output by 'year(date)'. You can override using the
`.groups` argument.

# A tibble: 624 × 4
# Groups:   year(date) [51]
   `year(date)` author         total_books average_characters
          <dbl> <chr>                <int>              <dbl>
 1         1967 James Blish              1            235524 
 2         1968 James Blish              1            232094 
 3         1969 James Blish              1            224369 
 4         1970 James Blish              1            207001 
 5         1971 James Blish              1            239859 
 6         1972 James Blish              4            268216.
 7         1973 James Blish              1            314575 
 8         1974 James Blish              1            310749 
 9         1975 James Blish              1            332807 
10         1976 Sondra Marshak           1            431759 
# ℹ 614 more rows

This helps analyze trends over time, showing how many books each author contributed in a particular year and the typical length of those books in terms of characters.

Summary of Total Books and Average Character Count by Publisher and Series

startrek_data %>%
  group_by(publisher, series) %>%
summarize(total_books = n(), average_nchar = mean(nchar, na.rm = TRUE))

`summarise()` has grouped output by 'publisher'. You can override using the
`.groups` argument.

# A tibble: 81 × 4
# Groups:   publisher [22]
   publisher           series total_books average_nchar
   <chr>               <chr>        <int>         <dbl>
 1 Abrams Publications REF              1       898671 
 2 Aladdin             YA-DS9          11       135368.
 3 Aladdin             YA-TNG          14       141448.
 4 Aladdin             YA-TOS           2       147656.
 5 Aladdin             YA-VOY           1       130989 
 6 Aladdin Paperbacks  TOS              1       390799 
 7 Amereon Ltd         TOS              2       233809 
 8 Bantam Books        TOS             20       287111.
 9 Demco Media         YA-VOY           2       134614 
10 Dk Publishing       REF              1      1094928 
# ℹ 71 more rows
…
