Data-As-Material - Assignment 3 - Part 3
…
grades <- read_csv("../../data/grades.csv")

Rows: 90 Columns: 7
── Column specification ────────────────────────────────────────────────────────
Delimiter: ","
chr (4): Degree, Course, Letter Grade, Gender
dbl (3): SN, Year, Score

ℹ Use `spec()` to retrieve the full column specification for this data.
ℹ Specify the column types or set `show_col_types = FALSE` to quiet this message.

grades

# A tibble: 90 × 7
      SN Degree Course  Year `Letter Grade` Score Gender
   <dbl> <chr>  <chr>  <dbl> <chr>          <dbl> <chr> 
 1     1 B.Des  CAC        2 A                8   Female
 2     2 B.Des  CAC        2 O                9.6 Female
 3     3 B.Des  IADP       2 A+               9.2 Female
 4     4 B.Des  CE         2 O                9.8 Female
 5     5 B.Des  BSSD       2 P                3   Male  
 6     6 B.Des  CAC        2 O                9.5 Female
 7     7 B.Des  PSD        2 A+               9   Female
 8     8 B.Des  PSD        2 A+               9   Female
 9     9 B.Des  PSD        2 A+               9   Female
10    10 B.Des  BSSD       3 A+               9   Female
# ℹ 80 more rows
…
grades_modified

# A tibble: 90 × 7
      SN Degree Course Year  `Letter Grade` Score Gender
   <dbl> <fct>  <fct>  <ord> <ord>          <dbl> <fct> 
 1     1 B.Des  CAC    2     A                7.5 Female
 2     2 B.Des  CAC    2     O                9.5 Female
 3     3 B.Des  IADP   2     A+               8.5 Female
 4     4 B.Des  CE     2     O                9.5 Female
 5     5 B.Des  BSSD   2     P                3.5 Male  
 6     6 B.Des  CAC    2     O                9.5 Female
 7     7 B.Des  PSD    2     A+               8.5 Female
 8     8 B.Des  PSD    2     A+               8.5 Female
 9     9 B.Des  PSD    2     A+               8.5 Female
10    10 B.Des  BSSD   3     A+               8.5 Female
# ℹ 80 more rows
…
